<?xml version="1.0" encoding="UTF-8" standalone="no"?>
<!-- Created with Inkscape (http://www.inkscape.org/) -->

<svg
   xmlns:dc="http://purl.org/dc/elements/1.1/"
   xmlns:cc="http://creativecommons.org/ns#"
   xmlns:rdf="http://www.w3.org/1999/02/22-rdf-syntax-ns#"
   xmlns:svg="http://www.w3.org/2000/svg"
   xmlns="http://www.w3.org/2000/svg"
   xmlns:sodipodi="http://sodipodi.sourceforge.net/DTD/sodipodi-0.dtd"
   xmlns:inkscape="http://www.inkscape.org/namespaces/inkscape"
   width="512"
   height="512"
   viewBox="0 0 512.00001 512.00001"
   id="svg2"
   version="1.1"
   inkscape:version="0.91 r13725"
   sodipodi:docname="start-stop-capture.svg"
   inkscape:export-filename="/home/waldo/Documents/Development/suscan/rsrc/start-capture.png"
   inkscape:export-xdpi="5.625"
   inkscape:export-ydpi="5.625">
  <defs
     id="defs4" />
  <sodipodi:namedview
     id="base"
     pagecolor="#ffffff"
     bordercolor="#666666"
     borderopacity="1.0"
     inkscape:pageopacity="0.0"
     inkscape:pageshadow="2"
     inkscape:zoom="0.45014485"
     inkscape:cx="-173.98347"
     inkscape:cy="291.42857"
     inkscape:document-units="px"
     inkscape:current-layer="layer1"
     showgrid="false"
     units="px"
     inkscape:window-width="1920"
     inkscape:window-height="1024"
     inkscape:window-x="0"
     inkscape:window-y="29"
     inkscape:window-maximized="1" />
  <metadata
     id="metadata7">
    <rdf:RDF>
      <cc:Work
         rdf:about="">
        <dc:format>image/svg+xml</dc:format>
        <dc:type
           rdf:resource="http://purl.org/dc/dcmitype/StillImage" />
        <dc:title></dc:title>
      </cc:Work>
    </rdf:RDF>
  </metadata>
  <g
     inkscape:label="Capa 1"
     inkscape:groupmode="layer"
     id="layer1"
     transform="translate(0,-540.36216)">
    <rect
       style="fill:#000000;fill-opacity:1;stroke:none;stroke-width:10;stroke-linecap:round;stroke-linejoin:round;stroke-miterlimit:4;stroke-dasharray:none;stroke-opacity:1"
       id="rect7476"
       width="500"
       height="500"
       x="6.6645212"
       y="547.54413"
       ry="40" />
    <g
       id="g6817"
       transform="matrix(1.7807473,0,0,1.7807473,-260.34119,-583.50778)"
       style="stroke:#ff0000;stroke-opacity:1">
      <path
         id="path6222"
         d="m 238.15686,737.98757 c -11.6,12.9 -18.7,30 -18.7,48.7 0,40.1 32.5,72.7 72.7,72.7 40.1,0 72.7,-32.5 72.7,-72.7 0,-18.7 -7.1,-35.8 -18.7,-48.7"
         style="fill:none;stroke:#ff0000;stroke-width:30;stroke-linecap:round;stroke-opacity:1"
         inkscape:connector-curvature="0" />
      <line
         id="line6224"
         y2="786.68762"
         x2="292.25687"
         y1="688.68762"
         x1="292.25687"
         style="fill:none;stroke:#ff0000;stroke-width:30;stroke-linecap:round;stroke-opacity:1" />
    </g>
  </g>
</svg>
